<?xml version="1.0" encoding="UTF-8" standalone="no"?>
<svg width="24px" height="24px" viewBox="0 0 24 24" version="1.1" xmlns="http://www.w3.org/2000/svg" xmlns:xlink="http://www.w3.org/1999/xlink">
    <!-- Generator: sketchtool 40.2 (33826) - http://www.bohemiancoding.com/sketch -->
    <title>B1488B27-0D12-4255-9500-9E473B9370AD</title>
    <desc>Created with sketchtool.</desc>
    <defs>
        <polygon id="path-1" points="1 2 1 17 21 16.9840867 21 2 16 7.2875113 11.0235596 2 6 7.2875113"></polygon>
        <mask id="mask-2" maskContentUnits="userSpaceOnUse" maskUnits="objectBoundingBox" x="0" y="0" width="20" height="15" fill="white">
            <use xlink:href="#path-1"></use>
        </mask>
    </defs>
    <g id="Page-1" stroke="none" stroke-width="1" fill="none" fill-rule="evenodd">
        <g id="UI-Kit" transform="translate(-1411.000000, -253.000000)">
            <g id="Icons" transform="translate(1111.000000, 158.000000)">
                <g id="Group-32-Copy-2" transform="translate(300.000000, 95.000000)">
                    <rect id="Rectangle-6" x="0" y="0" width="24" height="24"></rect>
                    <g id="Group-5" transform="translate(1.000000, 3.000000)">
                        <use id="Path-12" stroke="#4E4E4E" mask="url(#mask-2)" stroke-width="4" xlink:href="#path-1"></use>
                        <circle id="Oval-10" fill="#4E4E4E" cx="11" cy="2" r="2"></circle>
                        <circle id="Oval-10-Copy" fill="#4E4E4E" cx="20" cy="2" r="2"></circle>
                        <circle id="Oval-10-Copy-2" fill="#4E4E4E" cx="2" cy="2" r="2"></circle>
                    </g>
                </g>
            </g>
        </g>
    </g>
</svg>