<?xml version="1.0" encoding="UTF-8" standalone="no"?>
<svg width="24px" height="24px" viewBox="0 0 24 24" version="1.1" xmlns="http://www.w3.org/2000/svg" xmlns:xlink="http://www.w3.org/1999/xlink">
    <!-- Generator: sketchtool 40.2 (33826) - http://www.bohemiancoding.com/sketch -->
    <title>01EBBFF8-8A96-4F1A-84B6-4B985C9E8D5E</title>
    <desc>Created with sketchtool.</desc>
    <defs>
        <circle id="path-1" cx="5" cy="3" r="3"></circle>
        <mask id="mask-2" maskContentUnits="userSpaceOnUse" maskUnits="objectBoundingBox" x="0" y="0" width="6" height="6" fill="white">
            <use xlink:href="#path-1"></use>
        </mask>
        <circle id="path-3" cx="5" cy="15" r="3"></circle>
        <mask id="mask-4" maskContentUnits="userSpaceOnUse" maskUnits="objectBoundingBox" x="0" y="0" width="6" height="6" fill="white">
            <use xlink:href="#path-3"></use>
        </mask>
        <circle id="path-5" cx="13" cy="9" r="3"></circle>
        <mask id="mask-6" maskContentUnits="userSpaceOnUse" maskUnits="objectBoundingBox" x="0" y="0" width="6" height="6" fill="white">
            <use xlink:href="#path-5"></use>
        </mask>
    </defs>
    <g id="Page-1" stroke="none" stroke-width="1" fill="none" fill-rule="evenodd">
        <g id="UI-Kit" transform="translate(-1361.000000, -253.000000)">
            <g id="Icons" transform="translate(1111.000000, 158.000000)">
                <g id="Group-32-Copy" transform="translate(250.000000, 95.000000)">
                    <rect id="Rectangle-6" x="0" y="0" width="24" height="24"></rect>
                    <g id="Group-8" transform="translate(3.000000, 3.000000)">
                        <rect id="Rectangle-17-Copy-2" fill="#4E4E4E" x="0" y="2" width="3" height="2"></rect>
                        <rect id="Rectangle-17-Copy-5" fill="#4E4E4E" x="7" y="2" width="11" height="2"></rect>
                        <use id="Oval-6" stroke="#4E4E4E" mask="url(#mask-2)" stroke-width="4" xlink:href="#path-1"></use>
                        <rect id="Rectangle-17-Copy-4" fill="#4E4E4E" x="7" y="14" width="11" height="2"></rect>
                        <rect id="Rectangle-17-Copy-7" fill="#4E4E4E" x="0" y="14" width="3" height="2"></rect>
                        <use id="Oval-6-Copy-2" stroke="#4E4E4E" mask="url(#mask-4)" stroke-width="4" xlink:href="#path-3"></use>
                        <rect id="Rectangle-17-Copy-3" fill="#4E4E4E" x="0" y="8" width="11" height="2"></rect>
                        <rect id="Rectangle-17-Copy-6" fill="#4E4E4E" x="15" y="8" width="3" height="2"></rect>
                        <use id="Oval-6-Copy" stroke="#4E4E4E" mask="url(#mask-6)" stroke-width="4" xlink:href="#path-5"></use>
                    </g>
                </g>
            </g>
        </g>
    </g>
</svg>