<?xml version="1.0" encoding="UTF-8" standalone="no"?>
<svg width="24px" height="24px" viewBox="0 0 24 24" version="1.1" xmlns="http://www.w3.org/2000/svg" xmlns:xlink="http://www.w3.org/1999/xlink">
    <!-- Generator: sketchtool 40.2 (33826) - http://www.bohemiancoding.com/sketch -->
    <title>A5225BF5-C849-4C48-BA30-9F6F6FEA2B39</title>
    <desc>Created with sketchtool.</desc>
    <defs></defs>
    <g id="Page-1" stroke="none" stroke-width="1" fill="none" fill-rule="evenodd">
        <g id="UI-Kit" transform="translate(-1361.000000, -207.000000)">
            <g id="Icons" transform="translate(1111.000000, 158.000000)">
                <g id="Group-24-Copy" transform="translate(250.000000, 49.000000)">
                    <rect id="Rectangle-6" x="0" y="0" width="24" height="24"></rect>
                    <path d="M3,12 C3,7.02943725 7.02943725,3 12,3 C16.9705627,3 21,7.02943725 21,12 C21,16.9705627 16.9705627,21 12,21 C7.02943725,21 3,16.9705627 3,12 Z M19,12 C19,8.13400675 15.8659932,5 12,5 C8.13400675,5 5,8.13400675 5,12 C5,15.8659932 8.13400675,19 12,19 C15.8659932,19 19,15.8659932 19,12 Z" id="Icon-8" fill="#4E4E4E"></path>
                    <rect id="Rectangle-9" fill="#4E4E4E" x="11" y="1" width="2" height="6"></rect>
                    <rect id="Rectangle-9-Copy" fill="#4E4E4E" x="11" y="17" width="2" height="6"></rect>
                    <rect id="Rectangle-14" fill="#4E4E4E" x="1" y="11" width="6" height="2"></rect>
                    <rect id="Rectangle-14-Copy" fill="#4E4E4E" x="17" y="11" width="6" height="2"></rect>
                    <circle id="Oval-5" fill="#4E4E4E" cx="12" cy="12" r="1"></circle>
                </g>
            </g>
        </g>
    </g>
</svg>