<?xml version="1.0" encoding="UTF-8" standalone="no"?>
<svg width="14px" height="14px" viewBox="0 0 14 14" version="1.1" xmlns="http://www.w3.org/2000/svg" xmlns:xlink="http://www.w3.org/1999/xlink">
    <!-- Generator: sketchtool 40.2 (33826) - http://www.bohemiancoding.com/sketch -->
    <title>9B54B3DE-F651-4291-8C60-ED1C60206EE1</title>
    <desc>Created with sketchtool.</desc>
    <defs></defs>
    <g id="Welcome" stroke="none" stroke-width="1" fill="none" fill-rule="evenodd">
        <g id="-g-InJapan_ItemPage01" transform="translate(-1309.000000, -275.000000)" fill="#A7A7A7">
            <g id="02_Товар" transform="translate(233.000000, 164.000000)">
                <g id="02" transform="translate(566.000000, 101.000000)">
                    <g id="Избранное" transform="translate(510.000000, 10.000000)">
                        <polygon id="Path-31-Copy-2" points="7.02891554 0 5.01050127 5.01832362 0 5.0203929 4.0174295 8.54335285 2.01408303 13.9884363 6.99658382 10.9476201 12.0215429 14 10.0084359 8.49368998 14 5.009377 9.01764665 5.01710768"></polygon>
                    </g>
                </g>
            </g>
        </g>
    </g>
</svg>